…
``` r
#finding measures of center and spread grouped by variable: awardYear
nobelPrizes %>% group_by(awardYear) %>%
  summarise(avgAmt = mean(prizeAmount), medAmt = median(prizeAmount),
            minAmt = min(prizeAmount), maxAmt = max(prizeAmount), varAmt = var(prizeAmount))
```

    ## # A tibble: 123 × 6
    ##    awardYear avgAmt medAmt minAmt maxAmt varAmt
    ##    <chr>      <dbl>  <dbl>  <int>  <int>  <dbl>
    ##  1 1901      150782 150782 150782 150782      0
    ##  2 1902      141847 141847 141847 141847      0
    ##  3 1903      141358 141358 141358 141358      0
    ##  4 1904      140859 140859 140859 140859      0
    ##  5 1905      138089 138089 138089 138089      0
    ##  6 1906      138536 138536 138536 138536      0
    ##  7 1907      138796 138796 138796 138796      0
    ##  8 1908      139800 139800 139800 139800      0
    ##  9 1909      139800 139800 139800 139800      0
    ## 10 1910      140703 140703 140703 140703      0
    ## # ℹ 113 more rows
…
