…
# Find measures of center and spread for prize amount grouped by variable: awardYear
nobelPrizes %>% group_by(awardYear) %>%
  summarise(avgAmt = mean(prizeAmount), medAmt = median(prizeAmount),
            minAmt = min(prizeAmount), maxAmt = max(prizeAmount), varAmt = var(prizeAmount))

## # A tibble: 123 × 6
##    awardYear avgAmt medAmt
##    <chr>      <dbl>  <dbl>
##  1 1901      150782 150782
##  2 1902      141847 141847
##  3 1903      141358 141358
##  4 1904      140859 140859
##  5 1905      138089 138089
##  6 1906      138536 138536
##  7 1907      138796 138796
##  8 1908      139800 139800
##  9 1909      139800 139800
## 10 1910      140703 140703
## # ℹ 113 more rows
## # ℹ 3 more variables:
## #   minAmt <int>,
## #   maxAmt <int>,
## #   varAmt <dbl>
…
